/root/sample application/src/main/java/com/casoftware/security/UserRepositoryUserDetails.java
/root/sample application/src/main/java/com/casoftware/service/MainServiceImpl.java
/root/sample application/src/main/java/com/casoftware/dao/MainDao.java
/root/sample application/src/main/java/com/casoftware/dao/MainDaoImpl.java
/root/sample application/src/main/java/com/casoftware/dao/UserDao.java
/root/sample application/src/main/java/com/casoftware/dao/UserDaoImpl.java
/root/sample application/src/main/java/com/casoftware/service/CustomUserDetailsService.java
/root/sample application/src/main/java/com/casoftware/security/OAuth2ServerConfiguration.java
/root/sample application/src/main/java/com/casoftware/service/UserService.java
/root/sample application/src/main/java/com/casoftware/spring/config/CustomLogoutSuccessHandler.java
/root/sample application/src/main/java/com/casoftware/modal/Bank.java
/root/sample application/src/main/java/com/casoftware/constants/CaSoftwareConstants.java
/root/sample application/src/main/java/com/casoftware/rest/controller/MainController.java
/root/sample application/src/main/java/com/casoftware/dao/AbstractDao.java
/root/sample application/src/main/java/com/casoftware/service/UserServiceImpl.java
/root/sample application/src/main/java/com/casoftware/spring/config/CaSoftwareConfig.java
/root/sample application/src/main/java/com/casoftware/rest/controller/UserController.java
/root/sample application/src/main/java/com/casoftware/spring/config/DataSourceConfig.java
/root/sample application/src/main/java/com/casoftware/spring/config/HibernateConfiguration.java
/root/sample application/src/main/java/com/casoftware/security/WebSecurityConfig.java
/root/sample application/src/main/java/com/casoftware/spring/config/EmailConfig.java
/root/sample application/src/main/java/com/casoftware/spring/config/initializers/SpringSecurityInitializer.java
/root/sample application/src/main/java/com/casoftware/modal/UserRole.java
/root/sample application/src/main/java/com/casoftware/spring/config/AppConfig.java
/root/sample application/src/main/java/com/casoftware/service/MainService.java
/root/sample application/src/main/java/com/casoftware/dao/Dao.java
/root/sample application/src/main/java/com/casoftware/spring/config/CustomAuthenticationFailureHandler.java
/root/sample application/src/main/java/com/casoftware/spring/config/CustomLogoutHandler.java
/root/sample application/src/main/java/com/casoftware/spring/config/Initializer.java
/root/sample application/src/main/java/com/casoftware/util/ServiceStatus.java
/root/sample application/src/main/java/com/casoftware/spring/config/initializers/SpringMvcInitializer.java
/root/sample application/src/main/java/com/casoftware/modal/User.java
/root/sample application/src/main/java/com/casoftware/spring/config/CustomAuthenticationSuccessHandler.java
